Projet Analyse de données
…
Analyse prédictive et tendances

Peut-on prédire la performance future d’une entreprise en fonction
de ses indicateurs financiers et ESG ?

Existe-t-il des anomalies statistiques qui mériteraient une étude
plus approfondie ? ### 0. Répartition des entreprises par pays

Un barplot est un bon moyen de visualiser la répartition des
entreprises par pays. Cela permet de voir rapidement quels pays ont le
plus d’entreprises dans le jeu de données.

## # A tibble: 43 × 2
##    country        Count
##    <chr>          <int>
##  1 United States    501
##  2 Japan             84
##  3 Canada            51
##  4 China             38
##  5 Germany           37
##  6 India             34
##  7 France            33
##  8 United Kingdom    30
##  9 Switzerland       29
## 10 Australia         23
## # ℹ 33 more rows
…
